
Jafar1 8 9 64 71 34 71
Jafar2 80 10 57 70 32 70
Jafar3 144 11 55 69 33 69
Jafar4 208 12 51 68 33 68
Jafar5 272 11 64 69 32 69
Jafar6 344 11 82 69 33 69
Jafar7 440 11 85 69 32 69
Jafar8 536 11 68 69 32 69
Snake1 8 118 70 58 19 58
Snake2 88 112 64 64 38 64
Snake3 160 104 67 72 51 72
Snake4 240 104 71 72 55 72
Snake5 320 92 69 84 50 84
Snake6 400 93 69 83 50 83
Snake7 480 94 70 82 51 82
Snake8 560 94 70 82 51 82
Snake9 644 93 64 84 48 84
Snake10 716 95 64 82 19 82
Snake11 788 116 71 61 8 61
SmallFire1 14 193 24 47 12 47
SmallFire2 46 194 22 46 11 46
SmallFire3 78 193 24 47 12 47
SmallFire4 110 190 27 50 13 50
SmallFire5 150 194 35 46 17 46
Star1 198 226 28 14 14 14
Star2 238 224 24 16 12 16
Star3 270 225 26 15 13 15
StarDestroy1 310 227 14 13 7 13
StarDestroy2 334 226 21 14 10 14
StarDestroy3 382 219 15 21 7 10
BigFire1 8 286 75 50 37 50
BigFire2 96 288 79 48 39 48
BigFire3 189 305 94 31 47 31
BigFire4 296 308 90 28 45 28
BigFire5 400 307 77 29 38 29
BigFire6 488 305 73 31 36 31
BigFire7 568 293 64 43 32 43
BigFire8 645 285 64 51 32 51